Judul
;0x42,0x4F,0x4C,0x41,0x00,0x00,0x00,0x00,0x00,0x00,0x00,0x00,0x00,0x00,0x00,0x00,

2 x panjang
width depan
height
width belakang
count depan
count belakang
kecepatan depan
kecepatan belakang
cadangan
0x01,0x8A,0x2E,0x10,0x00,0x04,0x04,0x08,0x02,0x00,

Data depan
0x00,0x00,0xC0,0x20,0xD0,0x30,0x88,0x78,0x88,0x90,0x70,0x20,0xC0,0x00,0x00,0x00,0x00,0xE0,0x38,0xA4,0x42,0x8E,0x13,0x25,0xC9,0x52,0x22,0xA4,0x18,0xE0,0x00,0x00,0x00,0x00,0xC0,0x20,0x10,0x90,0x48,0x28,0x98,0x70,0x10,0x20,0xC0,0x00,
0x00,0x07,0x18,0x25,0x44,0x4C,0x93,0xA4,0xC8,0x71,0x42,0x25,0x1C,0x06,0x00,0x00,0x00,0x00,0x03,0x04,0x0E,0x09,0x11,0x1E,0x11,0x0C,0x0B,0x04,0x03,0x00,0x00,0x00,0x00,0x07,0x18,0x25,0x59,0x62,0x8E,0xF1,0x88,0x4C,0x72,0x25,0x19,0x07,
0x00,0x80,0x60,0x90,0x38,0xC8,0x44,0x3C,0xC4,0x18,0x68,0x90,0x60,0x80,0x00,0x00,0x00,0xC0,0x30,0x48,0x34,0x8C,0xE2,0x1E,0x22,0x64,0x9C,0x48,0x30,0xC0,0x00,0x00,0x00,0x80,0xE0,0x90,0x08,0x38,0x4C,0x94,0x24,0x48,0x88,0x90,0x60,0x80,
0x00,0x03,0x0E,0x12,0x21,0x38,0x64,0x52,0x49,0x25,0x22,0x12,0x0C,0x03,0x00,0x00,0x00,0x01,0x07,0x09,0x11,0x12,0x24,0x29,0x32,0x1C,0x10,0x09,0x07,0x01,0x00,0x00,0x00,0x03,0x0C,0x12,0x39,0x26,0x44,0x78,0x47,0x31,0x2C,0x12,0x0C,0x03,
0x00,0xC0,0x30,0x48,0x44,0xA4,0x92,0x4A,0x26,0x1C,0x84,0x48,0x70,0xC0,0x00,0x00,0x00,0x80,0x60,0x90,0x38,0xC8,0x44,0x3C,0xC4,0x18,0x68,0x90,0x60,0x80,0x00,0x00,0x00,0xC0,0x30,0x48,0x34,0x8C,0xE2,0x1E,0x22,0x64,0x9C,0x48,0x30,0xC0,
0x00,0x01,0x06,0x09,0x16,0x18,0x23,0x3C,0x22,0x13,0x1C,0x09,0x06,0x01,0x00,0x00,0x00,0x03,0x0E,0x12,0x21,0x38,0x64,0x52,0x49,0x25,0x22,0x12,0x0C,0x03,0x00,0x00,0x00,0x01,0x06,0x09,0x11,0x12,0x24,0x29,0x32,0x1C,0x10,0x09,0x07,0x01,
0x00,0xE0,0x38,0xA4,0x42,0x8E,0x13,0x25,0xC9,0x52,0x22,0xA4,0x18,0xE0,0x00,0x00,0x00,0x00,0xC0,0x20,0x10,0x90,0x48,0x28,0x98,0x70,0x10,0x20,0xC0,0x00,0x00,0x00,0x00,0xE0,0x98,0xA4,0x4E,0x32,0x11,0x8F,0x71,0x46,0x9A,0xA4,0x18,0xE0,
0x00,0x00,0x03,0x05,0x0E,0x09,0x11,0x1E,0x11,0x0C,0x0B,0x04,0x03,0x00,0x00,0x00,0x00,0x07,0x18,0x25,0x59,0x62,0x8E,0xF1,0x88,0x4C,0x72,0x25,0x19,0x07,0x00,0x00,0x00,0x00,0x03,0x04,0x08,0x0E,0x19,0x14,0x12,0x09,0x08,0x04,0x03,0x00,
