Judul
;0x42,0x75,0x6B,0x61,0x50,0x75,0x61,0x73,0x61,0x00,0x00,0x00,0x00,0x00,0x00,0x00,

2 x panjang
width depan
height
width belakang
count depan
count belakang
kecepatan depan
kecepatan belakang
cadangan
0x02,0x7A,0x26,0x10,0x26,0x01,0x07,0x01,0x0E,0x00,

Data depan
0x00,0xF0,0xD0,0xD0,0xD0,0xDE,0xF2,0xC2,0x42,0xC0,0x00,0x00,0x00,0x00,0x00,0x00,0x00,0x00,0x00,0x00,0x00,0x00,0x00,0x00,0x00,0x00,0x00,0x00,0x00,0x00,0x00,0x00,0x00,0x00,0x00,0x00,0x00,0x00,
0x00,0x7F,0xFF,0xFF,0xFF,0xFF,0x7F,0x08,0x04,0x03,0x18,0x38,0x28,0x6E,0x4A,0x52,0xD6,0x96,0x94,0x94,0x98,0x98,0x96,0x96,0x9E,0x9A,0x9A,0x9A,0x94,0x9C,0xCC,0x4C,0x4C,0x68,0x28,0x38,0x18,0x00,


Data Blakang
0x00,0xF0,0xD0,0xD0,0xD0,0xDE,0xF2,0xC2,0x42,0xC0,0x00,0x00,0x00,0x00,0x00,0x00,0x00,0x00,0x00,0x00,0x00,0x00,0x00,0x00,0x00,0x00,0x00,0x00,0x00,0x00,0x00,0x00,0x00,0x00,0x00,0x00,0x00,0x00,
0x00,0x7F,0xFF,0xFF,0xFF,0xFF,0x7F,0x08,0x04,0x03,0x18,0x38,0x28,0x6E,0x4A,0x52,0xD6,0x96,0x94,0x94,0x98,0x98,0x96,0x96,0x9E,0x9A,0x9A,0x9A,0x94,0x9C,0xCC,0x4C,0x4C,0x68,0x28,0x38,0x18,0x00,
0x00,0xF0,0x10,0x10,0x10,0x1E,0xF2,0xC2,0x42,0xC0,0x00,0x00,0x00,0x00,0x00,0x00,0x00,0x00,0x00,0x00,0x00,0x00,0x00,0x00,0x00,0x00,0x00,0x00,0x00,0x00,0x00,0x00,0x00,0x00,0x00,0x00,0x00,0x00,
0x00,0x7F,0xFF,0xFF,0xFF,0xFF,0x7F,0x08,0x04,0x03,0x18,0x38,0x28,0x6E,0x4A,0x52,0xD6,0x96,0x94,0x94,0x98,0x98,0x96,0x96,0x9E,0x9A,0x9A,0x9A,0x94,0x9C,0xCC,0x4C,0x4C,0x68,0x28,0x38,0x18,0x00,
0x00,0xF0,0x10,0x10,0x10,0x1E,0xF2,0xC2,0x42,0xC0,0x00,0x00,0x00,0x00,0x00,0x00,0x00,0x00,0x00,0x00,0x00,0x00,0x00,0x00,0x00,0x00,0x00,0x00,0x00,0x00,0x00,0x00,0x00,0x00,0x00,0x00,0x00,0x00,
0x00,0x7F,0xFF,0xFF,0xFF,0xFF,0x7F,0x08,0x04,0x03,0x18,0x38,0x28,0x6E,0x4A,0x52,0xD6,0x96,0x94,0x94,0x98,0x98,0x96,0x96,0x9E,0x9A,0x9A,0x9E,0x90,0x90,0xC8,0x48,0x48,0x68,0x28,0x38,0x18,0x00,
0x00,0xF0,0x10,0x10,0x10,0x1E,0xF2,0xC2,0x42,0xC0,0x00,0x00,0x00,0x00,0x00,0x00,0x00,0x00,0x00,0x00,0x00,0x00,0x00,0x00,0x00,0x00,0x00,0x00,0x00,0x00,0x00,0x00,0x00,0x00,0x00,0x00,0x00,0x00,
0x00,0x7F,0xFF,0xFF,0xFF,0xFF,0x7F,0x08,0x04,0x03,0x18,0x38,0x28,0x6E,0x4A,0x52,0xD6,0x96,0x94,0x94,0x98,0x98,0x96,0x96,0x9E,0x9E,0x90,0x90,0x90,0x90,0xC8,0x48,0x48,0x68,0x28,0x38,0x18,0x00,
0x00,0xF0,0x10,0x10,0x10,0x1E,0xF2,0xC2,0x42,0xC0,0x00,0x00,0x00,0x00,0x00,0x00,0x00,0x00,0x00,0x00,0x00,0x00,0x00,0x00,0x00,0x00,0x00,0x00,0x00,0x00,0x00,0x00,0x00,0x00,0x00,0x00,0x00,0x00,
0x00,0x7F,0xFF,0xFF,0xFF,0xFF,0x7F,0x08,0x04,0x03,0x18,0x38,0x28,0x6E,0x4A,0x52,0xD6,0x96,0x94,0x94,0x98,0x98,0x90,0x90,0x90,0x90,0x90,0x90,0x90,0x90,0xC8,0x48,0x48,0x68,0x28,0x38,0x18,0x00,
0x00,0xF0,0x10,0x10,0x10,0x1E,0xF2,0xC2,0x42,0xC0,0x00,0x00,0x00,0x00,0x00,0x00,0x00,0x00,0x00,0x00,0x00,0x00,0x00,0x00,0x00,0x00,0x00,0x00,0x00,0x00,0x00,0x00,0x00,0x00,0x00,0x00,0x00,0x00,
0x00,0x7F,0xFF,0xFF,0xFF,0xFF,0x7F,0x08,0x04,0x03,0x18,0x38,0x28,0x68,0x48,0x50,0xD0,0x90,0x90,0x90,0x90,0x90,0x90,0x90,0x90,0x90,0x90,0x90,0x90,0x90,0xC8,0x48,0x48,0x68,0x28,0x38,0x18,0x00,
0x00,0xF0,0x10,0x10,0x10,0x1E,0xF2,0xC2,0x42,0xC0,0x00,0x00,0x00,0x00,0x00,0x00,0x00,0x00,0x00,0x00,0x00,0x00,0x00,0x00,0x00,0x00,0x00,0x00,0x00,0x00,0x00,0x00,0x00,0x00,0x00,0x00,0x00,0x00,
0x00,0x7F,0xC0,0xC0,0xC0,0xC0,0x7F,0x08,0x04,0x03,0x18,0x38,0x28,0x68,0x48,0x50,0xD0,0x90,0x90,0x90,0x90,0x90,0x90,0x90,0x90,0x90,0x90,0x90,0x90,0x90,0xC8,0x48,0x48,0x68,0x28,0x38,0x18,0x00,
